%YAML 1.1
%TAG !u! tag:unity3d.com,2011:
--- !u!1045 &1
EditorBuildSettings:
  m_ObjectHideFlags: 0
  serializedVersion: 2
  m_Scenes:
  - enabled: 1
    path: Assets/Scenes/MainMenu.unity
    guid: 46c78352c05bd4b3d9da146469ac2a4b
  - enabled: 1
    path: Assets/Scenes/Arena.unity
    guid: 0ac1e0e8433f18947963353b1147b252
  - enabled: 1
    path: Assets/Scenes/ScoreScreen.unity
    guid: e34c2f519b6884efaa121fe13759b179
  - enabled: 1
    path: Assets/Scenes/Story.unity
    guid: 7899c633b8d550e4c9a97ebf51dd4a1e
  - enabled: 1
    path: Assets/Scenes/Highscores.unity
    guid: e4ad100e7f08dd34c907320717c98fc3
